[
  {
    "id": "9853552",
    "img": "",
    "ext": "",
    "now": "2016-09-22(四)21:31:57",
    "userid": "Ovear",
    "name": "无名氏",
    "email": "",
    "title": "无标题",
    "content": "海外/移动CDN已上线，海外用户和移动用户访问速度应该会有好转。<br />\r\n请移动、海外用户在本串下反馈~<br />\r\n09/22 22:34 欧洲CDN已上线，请欧洲用户在本串下反馈<br />\r\n如果会使用 ping 命令， 麻烦在本串下 贴一下 ping h.nimingban.com 的结果，并附上自己区域以及运营商<br/>\r\n比如说，广州电信4M<br/>\r\n<font color=\"red\">请目前仍然无法上岛的电脑用户 (如湖南移动) 联系iheretic@扣扣.com，以便我们跟进优化。（请把扣扣替换成qq）</font>",
    "sage": "1",
    "admin": "1",
    "remainReplys": 238,
    "replyCount": "243",
    "replys": [
      {
        "id": "9910238",
        "img": "",
        "ext": "",
        "now": "2016-09-27(二)11:19:30",
        "userid": "L9RJ2PZ",
        "name": "无名氏",
        "email": "",
        "title": "无标题",
        "content": "&gt;&gt;No.9910173<br />\r\n搞个jb，移动不滋词你有什么办法",
        "sage": "0",
        "admin": "0"
      },
      {
        "id": "9910919",
        "img": "",
        "ext": "",
        "now": "2016-09-27(二)12:12:44",
        "userid": "Pwg8LXq",
        "name": "无名氏",
        "email": "",
        "title": "无标题",
        "content": "(｀･ω･)(｀･ω･)|-` )",
        "sage": "0",
        "admin": "0"
      },
      {
        "id": "9913337",
        "img": "",
        "ext": "",
        "now": "2016-09-27(二)15:55:58",
        "userid": "jiNpdre",
        "name": "无名氏",
        "email": "",
        "title": "无标题",
        "content": "加州 cricket 感觉速度比以前慢了 图片有时打不开",
        "sage": "0",
        "admin": "0"
      },
      {
        "id": "9913431",
        "img": "",
        "ext": "",
        "now": "2016-09-27(二)16:03:08",
        "userid": "QeRVK0S",
        "name": "无名氏",
        "email": "",
        "title": "无标题",
        "content": "青岛移动 用的学学校的移动宽带。前几天更新了CDN后不用代理 然后今天又要代理了",
        "sage": "0",
        "admin": "0"
      },
      {
        "id": "9913843",
        "img": "",
        "ext": "",
        "now": "2016-09-27(二)16:36:54",
        "userid": "5ttsMNO",
        "name": "无名氏",
        "email": "",
        "title": "无标题",
        "content": "我们学校校内网上不了，哈工大的",
        "sage": "0",
        "admin": "0"
      }
    ]
  },
  {
    "id": "9913278",
    "img": "2016-09-27/57ea24a313116",
    "ext": ".png",
    "now": "2016-09-27(二)15:51:03",
    "userid": "jiNpdre",
    "name": "无名氏",
    "email": "",
    "title": "无标题",
    "content": "绝对音感出现了(ﾟДﾟ≡ﾟДﾟ)",
    "sage": "0",
    "admin": "0",
    "remainReplys": 47,
    "replyCount": "52",
    "replys": [
      {
        "id": "9916733",
        "img": "",
        "ext": "",
        "now": "2016-09-27(二)20:48:52",
        "userid": "brW6lAb",
        "name": "无名氏",
        "email": "",
        "title": "无标题",
        "content": "理性机器 绝对音感 妖刀罪歌 冻鳗老鸟 ",
        "sage": "0",
        "admin": "0"
      },
      {
        "id": "9916885",
        "img": "",
        "ext": "",
        "now": "2016-09-27(二)21:04:35",
        "userid": "qBsSHl8",
        "name": "无名氏",
        "email": "",
        "title": "无标题",
        "content": "可能是练小提琴的练出来的？我测试过，能分辨出零点几赫兹的差别。。。",
        "sage": "0",
        "admin": "0"
      },
      {
        "id": "9917290",
        "img": "",
        "ext": "",
        "now": "2016-09-27(二)21:43:25",
        "userid": "K8gel1m",
        "name": "无名氏",
        "email": "",
        "title": "无标题",
        "content": "&gt;&gt;No.9916885<br />\n纯属扯淡",
        "sage": "0",
        "admin": "0"
      },
      {
        "id": "9917308",
        "img": "",
        "ext": "",
        "now": "2016-09-27(二)21:44:55",
        "userid": "K8gel1m",
        "name": "无名氏",
        "email": "",
        "title": "无标题",
        "content": "&gt;&gt;No.9916885<br />\n作为专业乐团的一员告诉你一般±2hz(约20cent)指挥都听不出来",
        "sage": "0",
        "admin": "0"
      },
      {
        "id": "9917340",
        "img": "",
        "ext": "",
        "now": "2016-09-27(二)21:48:06",
        "userid": "POJts6O",
        "name": "无名氏",
        "email": "",
        "title": "无标题",
        "content": "请问有音感但不会唱怎么办……一般听一遍歌基本上能记住里面的旋律，总有种点了天赋却浪费了的感觉……",
        "sage": "0",
        "admin": "0"
      }
    ]
  },
  {
    "id": "9917526",
    "img": "2016-09-27/57ea7cc40508a",
    "ext": ".jpg",
    "now": "2016-09-27(二)22:05:56",
    "userid": "JyqXbZ1",
    "name": "无名氏",
    "email": "",
    "title": "无标题",
    "content": "我要晒！别拦我我要晒！！！",
    "sage": "0",
    "admin": "0",
    "remainReplys": 3,
    "replyCount": "8",
    "replys": [
      {
        "id": "9917543",
        "img": "",
        "ext": "",
        "now": "2016-09-27(二)22:07:21",
        "userid": "VpGjx3m",
        "name": "无名氏",
        "email": "",
        "title": "无标题",
        "content": "过气xx(不知道干什么的)",
        "sage": "0",
        "admin": "0"
      },
      {
        "id": "9917551",
        "img": "",
        "ext": "",
        "now": "2016-09-27(二)22:08:01",
        "userid": "1TDX1JZ",
        "name": "无名氏",
        "email": "",
        "title": "无标题",
        "content": "李易峰强！无敌！我最喜欢看他玩的暗夜精灵了| ω・´)",
        "sage": "0",
        "admin": "0"
      },
      {
        "id": "9917564",
        "img": "",
        "ext": "",
        "now": "2016-09-27(二)22:08:41",
        "userid": "fOdb1Xc",
        "name": "无名氏",
        "email": "",
        "title": "无标题",
        "content": "出门右拐war3版",
        "sage": "0",
        "admin": "0"
      },
      {
        "id": "9917570",
        "img": "2016-09-27/57ea7d7b78314",
        "ext": ".png",
        "now": "2016-09-27(二)22:08:59",
        "userid": "JyqXbZ1",
        "name": "无名氏",
        "email": "",
        "title": "无标题",
        "content": "&gt;&gt;No.9917526<br />\n第一次抽到！签名一并获得！圆满！超快乐！！！(＾o＾)ﾉ",
        "sage": "0",
        "admin": "0"
      },
      {
        "id": "9917578",
        "img": "",
        "ext": "",
        "now": "2016-09-27(二)22:09:42",
        "userid": "ONlpIY0",
        "name": "无名氏",
        "email": "",
        "title": "无标题",
        "content": "李易峰已经不是当面的李易峰了，现在散发着一股子资本家的臭味，从为阿怡洗地开始就粉转黑了",
        "sage": "0",
        "admin": "0"
      }
    ]
  },
  {
    "id": "9917544",
    "img": "2016-09-27/57ea7d246d244",
    "ext": ".jpg",
    "now": "2016-09-27(二)22:07:33",
    "userid": "QT2m7n3",
    "name": "无名氏",
    "email": "",
    "title": "无标题",
    "content": "好帅(〃∀〃)",
    "sage": "0",
    "admin": "0",
    "replyCount": "3",
    "replys": [
      {
        "id": "9917557",
        "img": "",
        "ext": "",
        "now": "2016-09-27(二)22:08:23",
        "userid": "I85s0DR",
        "name": "无名氏",
        "email": "",
        "title": "无标题",
        "content": "暴露了自己1/3的脸",
        "sage": "0",
        "admin": "0"
      },
      {
        "id": "9917572",
        "img": "",
        "ext": "",
        "now": "2016-09-27(二)22:09:13",
        "userid": "35ws9Bh",
        "name": "无名氏",
        "email": "",
        "title": "无标题",
        "content": "手机上全是肥油(´ﾟДﾟ`)",
        "sage": "0",
        "admin": "0"
      },
      {
        "id": "9917662",
        "img": "",
        "ext": "",
        "now": "2016-09-27(二)22:15:35",
        "userid": "YWLiXjl",
        "name": "无名氏",
        "email": "",
        "title": "无标题",
        "content": "meizu max？ note3？",
        "sage": "0",
        "admin": "0"
      }
    ]
  },
  {
    "id": "9917586",
    "img": "",
    "ext": "",
    "now": "2016-09-27(二)22:10:27",
    "userid": "AtvJpEy",
    "name": "无名氏",
    "email": "",
    "title": "无标题",
    "content": "买了套房子 家人让我学车 好变成有房有车好找对象<br />\r\n 不过我似乎一直有驾车恐惧症 好不容易下决心买车学车 又听闻一些可怕的事故 于是决心再次逐渐收回<br />\r\n准备搞一台高配自行车 然后这辈子就这样了 不行吗",
    "sage": "0",
    "admin": "0",
    "replyCount": "4",
    "replys": [
      {
        "id": "9917592",
        "img": "",
        "ext": "",
        "now": "2016-09-27(二)22:10:56",
        "userid": "wpdjqSl",
        "name": "无名氏",
        "email": "",
        "title": "无标题",
        "content": "喂！醒醒",
        "sage": "0",
        "admin": "0"
      },
      {
        "id": "9917606",
        "img": "",
        "ext": "",
        "now": "2016-09-27(二)22:11:50",
        "userid": "gIzNlUf",
        "name": "无名氏",
        "email": "",
        "title": "无标题",
        "content": "虽然我驾照考到了，但还是怕开车|-` )",
        "sage": "0",
        "admin": "0"
      },
      {
        "id": "9917646",
        "img": "2016-09-27/57ea7ec5db312",
        "ext": ".jpg",
        "now": "2016-09-27(二)22:14:29",
        "userid": "C6kl9Ms",
        "name": "无名氏",
        "email": "",
        "title": "无标题",
        "content": "分享图片",
        "sage": "0",
        "admin": "0"
      },
      {
        "id": "9917661",
        "img": "",
        "ext": "",
        "now": "2016-09-27(二)22:15:30",
        "userid": "AtvJpEy",
        "name": "无名氏",
        "email": "",
        "title": "无标题",
        "content": "&gt;&gt;9917592<br />\r\n重点不在找对象这件事上 关键在社会上 心里总想要跟别人对齐",
        "sage": "0",
        "admin": "0"
      }
    ]
  },
  {
    "id": "9916920",
    "img": "2016-09-27/57ea6f1b759ba",
    "ext": ".png",
    "now": "2016-09-27(二)21:07:39",
    "userid": "HddfXfH",
    "name": "无名氏",
    "email": "",
    "title": "无标题",
    "content": "好气啊，为什么我初中没有这么样的老师(;´Д`)",
    "sage": "0",
    "admin": "0",
    "remainReplys": 5,
    "replyCount": "10",
    "replys": [
      {
        "id": "9917104",
        "img": "",
        "ext": "",
        "now": "2016-09-27(二)21:23:59",
        "userid": "H2o4g3b",
        "name": "无名氏",
        "email": "",
        "title": "无标题",
        "content": "老师的小圆照呢(=ﾟωﾟ)=",
        "sage": "0",
        "admin": "0"
      },
      {
        "id": "9917160",
        "img": "",
        "ext": "",
        "now": "2016-09-27(二)21:30:19",
        "userid": "ejx4Lpb",
        "name": "无名氏",
        "email": "",
        "title": "无标题",
        "content": "&gt;&gt;No.9917104<br />\n附议( ﾟ∀。)小圆照呢！",
        "sage": "0",
        "admin": "0"
      },
      {
        "id": "9917200",
        "img": "",
        "ext": "",
        "now": "2016-09-27(二)21:34:18",
        "userid": "nMH2wBY",
        "name": "无名氏",
        "email": "",
        "title": "无标题",
        "content": "这都能白羊( `д´)",
        "sage": "0",
        "admin": "0"
      },
      {
        "id": "9917346",
        "img": "",
        "ext": "",
        "now": "2016-09-27(二)21:48:46",
        "userid": "pdu6m0Y",
        "name": "无名氏",
        "email": "",
        "title": "无标题",
        "content": "所以图呢⊂彡☆))д´)",
        "sage": "0",
        "admin": "0"
      },
      {
        "id": "9917364",
        "img": "",
        "ext": "",
        "now": "2016-09-27(二)21:50:57",
        "userid": "tHsJhRV",
        "name": "无名氏",
        "email": "",
        "title": "无标题",
        "content": "初中？？",
        "sage": "0",
        "admin": "0"
      }
    ]
  },
  {
    "id": "9917376",
    "img": "",
    "ext": "",
    "now": "2016-09-27(二)21:52:34",
    "userid": "8Rqkg0G",
    "name": "无名氏",
    "email": "",
    "title": "无标题",
    "content": "朱军   我很寂寞  我喜欢女人。。。我也不知道是我天生对美丽女人的喜欢 导致我现在一个人异常寂寞，还是我现在的孤独寂寞 让我更加贪婪那些美丽的女人。。<br />\n我喜欢漂亮的女人  我喜欢年少初开的十几岁少女  青春的她们 梳着精巧的马尾辫  马尾一荡 ",
    "sage": "0",
    "admin": "0",
    "remainReplys": 7,
    "replyCount": "12",
    "replys": [
      {
        "id": "9917442",
        "img": "",
        "ext": "",
        "now": "2016-09-27(二)21:59:29",
        "userid": "VpGjx3m",
        "name": "无名氏",
        "email": "",
        "title": "无标题",
        "content": "你只是精虫上脑想艹b而已<br />\n拽什么jb文 ",
        "sage": "0",
        "admin": "0"
      },
      {
        "id": "9917457",
        "img": "",
        "ext": "",
        "now": "2016-09-27(二)22:00:48",
        "userid": "BNwuUQc",
        "name": "无名氏",
        "email": "",
        "title": "无标题",
        "content": "&gt;&gt;No.9917442<br />\n哈哈哈(*´∀`)",
        "sage": "0",
        "admin": "0"
      },
      {
        "id": "9917476",
        "img": "",
        "ext": "",
        "now": "2016-09-27(二)22:02:12",
        "userid": "8Rqkg0G",
        "name": "无名氏",
        "email": "",
        "title": "无标题",
        "content": "我喜欢二十多岁 跟差不多大的都市丽人。。优雅的妆容  精致的衣裳  她们脱去幼稚  包装性感  我爱她们一颦一笑  我爱她们在职场中穿着高跟鞋走路踢踏踢踏的性感声音。。我爱她们 时而冷漠 时而热情奔放。。",
        "sage": "0",
        "admin": "0"
      },
      {
        "id": "9917493",
        "img": "",
        "ext": "",
        "now": "2016-09-27(二)22:03:31",
        "userid": "VAZ7RW5",
        "name": "无名氏",
        "email": "",
        "title": "无标题",
        "content": "我给九尬(｀･ω･)",
        "sage": "0",
        "admin": "0"
      },
      {
        "id": "9917504",
        "img": "",
        "ext": "",
        "now": "2016-09-27(二)22:03:56",
        "userid": "mTtc7m4",
        "name": "无名氏",
        "email": "",
        "title": "无标题",
        "content": "哦，我的老伙计",
        "sage": "0",
        "admin": "0"
      }
    ]
  },
  {
    "id": "9917571",
    "img": "",
    "ext": "",
    "now": "2016-09-27(二)22:09:11",
    "userid": "FXHs7p9",
    "name": "无名氏",
    "email": "",
    "title": "无标题",
    "content": "哎，难得有一个有好感的妹子，结果有男友了|ー` )",
    "sage": "0",
    "admin": "0",
    "replyCount": "2",
    "replys": [
      {
        "id": "9917629",
        "img": "",
        "ext": "",
        "now": "2016-09-27(二)22:13:29",
        "userid": "I85s0DR",
        "name": "无名氏",
        "email": "",
        "title": "无标题",
        "content": "喜欢就表白<br />\n拒绝就强奸<br />\n连为心爱... ",
        "sage": "0",
        "admin": "0"
      },
      {
        "id": "9917645",
        "img": "",
        "ext": "",
        "now": "2016-09-27(二)22:14:10",
        "userid": "FXHs7p9",
        "name": "无名氏",
        "email": "",
        "title": "无标题",
        "content": "&gt;&gt;No.9917629<br />\n哎( ・_ゝ・)",
        "sage": "0",
        "admin": "0"
      }
    ]
  },
  {
    "id": "9917559",
    "img": "",
    "ext": "",
    "now": "2016-09-27(二)22:08:29",
    "userid": "j3t6hQk",
    "name": "无名氏",
    "email": "",
    "title": "无标题",
    "content": "想撬异地恋妹纸被发卡了，求蛤|д` )",
    "sage": "0",
    "admin": "0",
    "replyCount": "2",
    "replys": [
      {
        "id": "9917642",
        "img": "",
        "ext": "",
        "now": "2016-09-27(二)22:14:05",
        "userid": "HRTABCz",
        "name": "无名氏",
        "email": "",
        "title": "无标题",
        "content": "哦",
        "sage": "0",
        "admin": "0"
      },
      {
        "id": "9917644",
        "img": "",
        "ext": "",
        "now": "2016-09-27(二)22:14:08",
        "userid": "I85s0DR",
        "name": "无名氏",
        "email": "",
        "title": "无标题",
        "content": "笑出声<br />\n说出来<br />\n你以为 ",
        "sage": "0",
        "admin": "0"
      }
    ]
  },
  {
    "id": "9917580",
    "img": "2016-09-27/57ea7db2347f7",
    "ext": ".jpg",
    "now": "2016-09-27(二)22:09:54",
    "userid": "82Hr8ir",
    "name": "无名氏",
    "email": "",
    "title": "无标题",
    "content": "朱军，发现自己一个眼睛大一个眼睛小，这可如何是好？(((　ﾟдﾟ)))",
    "sage": "0",
    "admin": "0",
    "remainReplys": 6,
    "replyCount": "11",
    "replys": [
      {
        "id": "9917608",
        "img": "",
        "ext": "",
        "now": "2016-09-27(二)22:11:53",
        "userid": "KZcJIJo",
        "name": "无名氏",
        "email": "",
        "title": "无标题",
        "content": "(´ﾟДﾟ`)这是...跟希拉里一样的症状",
        "sage": "0",
        "admin": "0"
      },
      {
        "id": "9917612",
        "img": "",
        "ext": "",
        "now": "2016-09-27(二)22:12:04",
        "userid": "czMjteg",
        "name": "无名氏",
        "email": "",
        "title": "无标题",
        "content": "我也是这样！还有救吗？",
        "sage": "0",
        "admin": "0"
      },
      {
        "id": "9917615",
        "img": "",
        "ext": "",
        "now": "2016-09-27(二)22:12:16",
        "userid": "82Hr8ir",
        "name": "无名氏",
        "email": "",
        "title": "无标题",
        "content": "&gt;&gt;No.9917608<br />\n别吓我啊，我还年轻(ﾟДﾟ≡ﾟДﾟ)",
        "sage": "0",
        "admin": "0"
      },
      {
        "id": "9917618",
        "img": "",
        "ext": "",
        "now": "2016-09-27(二)22:12:22",
        "userid": "jwECfzd",
        "name": "无名氏",
        "email": "",
        "title": "无标题",
        "content": "右眼眯着",
        "sage": "0",
        "admin": "0"
      },
      {
        "id": "9917619",
        "img": "",
        "ext": "",
        "now": "2016-09-27(二)22:12:26",
        "userid": "EWxn8iQ",
        "name": "无名氏",
        "email": "",
        "title": "无标题",
        "content": "虽然我也但是你这个比我还严重啊……",
        "sage": "0",
        "admin": "0"
      }
    ]
  },
  {
    "id": "9917461",
    "img": "",
    "ext": "",
    "now": "2016-09-27(二)22:01:15",
    "userid": "fUmcxvL",
    "name": "无名氏",
    "email": "",
    "title": "无标题",
    "content": "朱军，明天早上七点飞机，因为凌晨没地铁，打车又太贵，于是现在跑到了飞机场，有什么乐子可以找吗(;´Д`)",
    "sage": "0",
    "admin": "0",
    "remainReplys": 6,
    "replyCount": "11",
    "replys": [
      {
        "id": "9917475",
        "img": "2016-09-27/57ea7be1e554d",
        "ext": ".jpg",
        "now": "2016-09-27(二)22:02:09",
        "userid": "fUmcxvL",
        "name": "无名氏",
        "email": "",
        "title": "无标题",
        "content": "祭品",
        "sage": "0",
        "admin": "0"
      },
      {
        "id": "9917481",
        "img": "",
        "ext": "",
        "now": "2016-09-27(二)22:02:36",
        "userid": "lIjqiRj",
        "name": "无名氏",
        "email": "",
        "title": "无标题",
        "content": "据说空姐很多晚上接客赚外快| ω・´)",
        "sage": "0",
        "admin": "0"
      },
      {
        "id": "9917487",
        "img": "2016-09-27/57ea7c0b10ce4",
        "ext": ".jpg",
        "now": "2016-09-27(二)22:02:51",
        "userid": "fUmcxvL",
        "name": "无名氏",
        "email": "",
        "title": "无标题",
        "content": "祭品",
        "sage": "0",
        "admin": "0"
      },
      {
        "id": "9917491",
        "img": "",
        "ext": "",
        "now": "2016-09-27(二)22:03:23",
        "userid": "fUmcxvL",
        "name": "无名氏",
        "email": "",
        "title": "无标题",
        "content": "&gt;&gt;No.9917481<br />\n(つд⊂)",
        "sage": "0",
        "admin": "0"
      },
      {
        "id": "9917500",
        "img": "",
        "ext": "",
        "now": "2016-09-27(二)22:03:44",
        "userid": "fUmcxvL",
        "name": "无名氏",
        "email": "",
        "title": "无标题",
        "content": "&gt;&gt;No.9917467<br />\n⊂彡☆))д`)",
        "sage": "0",
        "admin": "0"
      }
    ]
  },
  {
    "id": "9917479",
    "img": "",
    "ext": "",
    "now": "2016-09-27(二)22:02:22",
    "userid": "yC32WdF",
    "name": "无名氏",
    "email": "",
    "title": "无标题",
    "content": "肥宅刚刚约了一个相亲的妹子国庆出街，妹子说想了好久，觉得我们不适合。然后我把她联系方式全删了。",
    "sage": "0",
    "admin": "0",
    "remainReplys": 2,
    "replyCount": "7",
    "replys": [
      {
        "id": "9917490",
        "img": "",
        "ext": "",
        "now": "2016-09-27(二)22:03:14",
        "userid": "lIjqiRj",
        "name": "无名氏",
        "email": "",
        "title": "无标题",
        "content": "sigh（拍肩）",
        "sage": "0",
        "admin": "0"
      },
      {
        "id": "9917494",
        "img": "2016-09-27/57ea7c391a127",
        "ext": ".jpg",
        "now": "2016-09-27(二)22:03:37",
        "userid": "wpdjqSl",
        "name": "无名氏",
        "email": "",
        "title": "无标题",
        "content": "分享图片",
        "sage": "0",
        "admin": "0"
      },
      {
        "id": "9917523",
        "img": "",
        "ext": "",
        "now": "2016-09-27(二)22:05:52",
        "userid": "yC32WdF",
        "name": "无名氏",
        "email": "",
        "title": "无标题",
        "content": "&gt;&gt;No.9917494<br />\n(〒︿〒)",
        "sage": "0",
        "admin": "0"
      },
      {
        "id": "9917527",
        "img": "",
        "ext": "",
        "now": "2016-09-27(二)22:06:06",
        "userid": "syFvWm4",
        "name": "无名氏",
        "email": "",
        "title": "无标题",
        "content": "拍肩（",
        "sage": "0",
        "admin": "0"
      },
      {
        "id": "9917563",
        "img": "",
        "ext": "",
        "now": "2016-09-27(二)22:08:37",
        "userid": "f19zdVC",
        "name": "无名氏",
        "email": "",
        "title": "无标题",
        "content": "欢迎回到肥宅温暖的怀抱(つд⊂)",
        "sage": "0",
        "admin": "0"
      }
    ]
  },
  {
    "id": "9770752",
    "img": "2016-09-16/57dac90e6b940",
    "ext": ".jpg",
    "now": "2016-09-16(五)00:15:10",
    "userid": "RcQxkDD",
    "name": "无名氏",
    "email": "",
    "title": "无标题",
    "content": "有故事，你们有酒和鸡翼吗？|∀` )",
    "sage": "0",
    "admin": "0",
    "remainReplys": 102,
    "replyCount": "107",
    "replys": [
      {
        "id": "9855321",
        "img": "2016-09-23/57e40195e955d",
        "ext": ".jpg",
        "now": "2016-09-23(五)00:06:46",
        "userid": "EXEDuLx",
        "name": "无名氏",
        "email": "",
        "title": "无标题",
        "content": "&gt;&gt;No.9855259<br />\n哦",
        "sage": "0",
        "admin": "0"
      },
      {
        "id": "9855558",
        "img": "",
        "ext": "",
        "now": "2016-09-23(五)00:30:06",
        "userid": "KRn5gqb",
        "name": "无名氏",
        "email": "",
        "title": "无标题",
        "content": "心疼肥肥，但是听描述男朋友君人不错啊，如果他们能走到一起的话。祝福他们吧(｀･ω･)",
        "sage": "0",
        "admin": "0"
      },
      {
        "id": "9859173",
        "img": "",
        "ext": "",
        "now": "2016-09-23(五)11:43:18",
        "userid": "RcQxkDD",
        "name": "无名氏",
        "email": "",
        "title": "无标题",
        "content": "&gt;&gt;No.9855558<br />\n但愿吧，自己不甘心也是应为自己没能力|-` )，只能怪自己",
        "sage": "0",
        "admin": "0"
      },
      {
        "id": "9860693",
        "img": "",
        "ext": "",
        "now": "2016-09-23(五)13:35:36",
        "userid": "fCgYKmg",
        "name": "无名氏",
        "email": "",
        "title": "无标题",
        "content": "哎…来杯红茶( ´_ゝ`)旦",
        "sage": "0",
        "admin": "0"
      },
      {
        "id": "9861016",
        "img": "",
        "ext": "",
        "now": "2016-09-23(五)14:01:13",
        "userid": "ItoMlZL",
        "name": "无名氏",
        "email": "",
        "title": "无标题",
        "content": "(｀･ω･)可能是有缘 无分吧，祝福他们吧。PO一定会找到属于自己的幸福的",
        "sage": "0",
        "admin": "0"
      }
    ]
  },
  {
    "id": "9915195",
    "img": "2016-09-27/57ea4aab0db31",
    "ext": ".jpg",
    "now": "2016-09-27(二)18:32:11",
    "userid": "fnHhX7Q",
    "name": "无名氏",
    "email": "",
    "title": "无标题",
    "content": "重建眼串|∀ﾟ",
    "sage": "0",
    "admin": "0",
    "remainReplys": 15,
    "replyCount": "20",
    "replys": [
      {
        "id": "9917495",
        "img": "2016-09-27/57ea7c3c3c272",
        "ext": ".jpg",
        "now": "2016-09-27(二)22:03:40",
        "userid": "JSLb7ta",
        "name": "无名氏",
        "email": "",
        "title": "无标题",
        "content": "| ω・´)",
        "sage": "0",
        "admin": "0"
      },
      {
        "id": "9917498",
        "img": "",
        "ext": "",
        "now": "2016-09-27(二)22:03:42",
        "userid": "rcoNC6i",
        "name": "无名氏",
        "email": "",
        "title": "无标题",
        "content": "&gt;&gt;No.9917486<br />\n(｀･ω･)男的，没乃。",
        "sage": "0",
        "admin": "0"
      },
      {
        "id": "9917509",
        "img": "2016-09-27/57ea7c6443717",
        "ext": ".png",
        "now": "2016-09-27(二)22:04:20",
        "userid": "8Zwleav",
        "name": "无名氏",
        "email": "",
        "title": "无标题",
        "content": "分享图片",
        "sage": "0",
        "admin": "0"
      },
      {
        "id": "9917531",
        "img": "2016-09-27/57ea7cefbefe5",
        "ext": ".jpg",
        "now": "2016-09-27(二)22:06:39",
        "userid": "JSLb7ta",
        "name": "无名氏",
        "email": "",
        "title": "无标题",
        "content": "分享图片",
        "sage": "0",
        "admin": "0"
      },
      {
        "id": "9917537",
        "img": "",
        "ext": "",
        "now": "2016-09-27(二)22:07:02",
        "userid": "gIzNlUf",
        "name": "无名氏",
        "email": "",
        "title": "无标题",
        "content": "&gt;&gt;No.9917498<br />\r\n女装！",
        "sage": "0",
        "admin": "0"
      }
    ]
  },
  {
    "id": "9917604",
    "img": "",
    "ext": "",
    "now": "2016-09-27(二)22:11:38",
    "userid": "EnnIIsd",
    "name": "无名氏",
    "email": "",
    "title": "无标题",
    "content": "一个男因为强奸而坐了十几年牢.他当时的律师因为对他隐藏了一份有利他的证据.之后那男出监了就找那个律师报仇.貌似把他老婆和女儿都强奸了.请问这电影什么名字.",
    "sage": "0",
    "admin": "0",
    "replyCount": "2",
    "replys": [
      {
        "id": "9917622",
        "img": "",
        "ext": "",
        "now": "2016-09-27(二)22:12:29",
        "userid": "82G4QG8",
        "name": "无名氏",
        "email": "",
        "title": "无标题",
        "content": "我是说，你的饼干可真酷我的朋友",
        "sage": "0",
        "admin": "0"
      },
      {
        "id": "9917625",
        "img": "",
        "ext": "",
        "now": "2016-09-27(二)22:12:58",
        "userid": "mTtc7m4",
        "name": "无名氏",
        "email": "",
        "title": "无标题",
        "content": "大话西游",
        "sage": "0",
        "admin": "0"
      }
    ]
  },
  {
    "id": "9916808",
    "img": "",
    "ext": "",
    "now": "2016-09-27(二)20:56:22",
    "userid": "fdmV6pr",
    "name": "无名氏",
    "email": "",
    "title": "无标题",
    "content": "寻人1<br />\r\n知道的信息只有所属班级和名字<br />\r\n有什么办法能通过万能的百度找到微博微信一类的信息吗，主要是微信(　ﾟ 3ﾟ)",
    "sage": "0",
    "admin": "0",
    "remainReplys": 7,
    "replyCount": "12",
    "replys": [
      {
        "id": "9916930",
        "img": "",
        "ext": "",
        "now": "2016-09-27(二)21:08:27",
        "userid": "ThtivrR",
        "name": "无名氏",
        "email": "",
        "title": "无标题",
        "content": "加他班的同学，然后等qq自动推送认识的人( ・_ゝ・)",
        "sage": "0",
        "admin": "0"
      },
      {
        "id": "9916960",
        "img": "",
        "ext": "",
        "now": "2016-09-27(二)21:10:15",
        "userid": "fdmV6pr",
        "name": "无名氏",
        "email": "",
        "title": "无标题",
        "content": "我刚发现了一个天才般的办法<br />\r\n两个舍友都跟他同班<br />\r\n借舍友手机，班群，微信号get<br />\r\n我真是太机智了(=ﾟωﾟ)=",
        "sage": "0",
        "admin": "0"
      },
      {
        "id": "9917004",
        "img": "",
        "ext": "",
        "now": "2016-09-27(二)21:13:03",
        "userid": "fdmV6pr",
        "name": "无名氏",
        "email": "",
        "title": "无标题",
        "content": "&gt;&gt;No.9916883<br />\r\n就是不想找辣，不然直接叫人推送给我了(　ﾟ 3ﾟ)<br />\r\n&gt;&gt;No.9916930<br />\r\n办法之一，不过太麻烦了，我也不喜欢加人<br />\r\n&gt;&gt;No.9916903<br />\r\n只是有点无聊储备几个视奸对象辣(*ﾟ∇ﾟ)",
        "sage": "0",
        "admin": "0"
      },
      {
        "id": "9917237",
        "img": "",
        "ext": "",
        "now": "2016-09-27(二)21:37:42",
        "userid": "6oLouvI",
        "name": "无名氏",
        "email": "",
        "title": "无标题",
        "content": "&gt;&gt;No.9916960<br />\r\n然而别人并不通过陌生人的好友申请",
        "sage": "0",
        "admin": "0"
      },
      {
        "id": "9917397",
        "img": "",
        "ext": "",
        "now": "2016-09-27(二)21:54:54",
        "userid": "fdmV6pr",
        "name": "无名氏",
        "email": "",
        "title": "无标题",
        "content": "&gt;&gt;No.9917237<br />\r\n嗨，其实我跟他认识的辣(=ﾟωﾟ)=<br />\r\n也算两年同学(　ﾟ 3ﾟ)",
        "sage": "0",
        "admin": "0"
      }
    ]
  },
  {
    "id": "9917469",
    "img": "",
    "ext": "",
    "now": "2016-09-27(二)22:01:58",
    "userid": "o6DAT5p",
    "name": "无名氏",
    "email": "",
    "title": "无标题",
    "content": "po是实习生，上次领导问我现在自己电脑有没有什么工作时候要用的软件，我就该说我这破电脑没有，现在倒好，晚上还会发点文件给我做(╬ﾟдﾟ)<br />\n<br />\n诸位引以为戒呀 ",
    "sage": "0",
    "admin": "0",
    "replyCount": "3",
    "replys": [
      {
        "id": "9917492",
        "img": "",
        "ext": "",
        "now": "2016-09-27(二)22:03:29",
        "userid": "AvQbjqi",
        "name": "无名氏",
        "email": "",
        "title": "无标题",
        "content": "你说没有那就叫你装上，有什么区别呢",
        "sage": "0",
        "admin": "0"
      },
      {
        "id": "9917519",
        "img": "",
        "ext": "",
        "now": "2016-09-27(二)22:05:34",
        "userid": "o6DAT5p",
        "name": "无名氏",
        "email": "",
        "title": "无标题",
        "content": "&gt;&gt;No.9917492<br />\n( ´_ゝ`)旦<br />\n连加班费都没有，还说我努力努力以后可以做个 小主管，希望我可以长久点。<br />\n但是，我tm一年后就要不干了(╬ﾟдﾟ) ",
        "sage": "0",
        "admin": "0"
      },
      {
        "id": "9917590",
        "img": "",
        "ext": "",
        "now": "2016-09-27(二)22:10:44",
        "userid": "ar6BvdM",
        "name": "无名氏",
        "email": "",
        "title": "无标题",
        "content": "&gt;&gt;No.9917519<br />\r\n凡是这样说好好干以后就能升上去的话一律都不要信，这样的领导宁愿用招个空降的也不会升下面的社畜|∀ﾟ",
        "sage": "0",
        "admin": "0"
      }
    ]
  },
  {
    "id": "9917329",
    "img": "2016-09-27/57ea78620eca2",
    "ext": ".jpg",
    "now": "2016-09-27(二)21:47:14",
    "userid": "SLERqt6",
    "name": "无名氏",
    "email": "",
    "title": "无标题",
    "content": "(　^ω^) <br />\n一直以为a岛的表情很可爱，然后这个表情怎么和这个用法差不多了(ﾟДﾟ≡ﾟДﾟ)",
    "sage": "0",
    "admin": "0",
    "remainReplys": 5,
    "replyCount": "10",
    "replys": [
      {
        "id": "9917337",
        "img": "",
        "ext": "",
        "now": "2016-09-27(二)21:47:50",
        "userid": "o1JmzNG",
        "name": "无名氏",
        "email": "",
        "title": "无标题",
        "content": "¯\\_(ツ)_/¯",
        "sage": "0",
        "admin": "0"
      },
      {
        "id": "9917352",
        "img": "",
        "ext": "",
        "now": "2016-09-27(二)21:49:40",
        "userid": "giFznXp",
        "name": "无名氏",
        "email": "",
        "title": "无标题",
        "content": "( ﾟωﾟ)",
        "sage": "0",
        "admin": "0"
      },
      {
        "id": "9917356",
        "img": "",
        "ext": "",
        "now": "2016-09-27(二)21:50:00",
        "userid": "lIjqiRj",
        "name": "无名氏",
        "email": "",
        "title": "无标题",
        "content": "(`ε´ )(つω⊂)（后入确认）",
        "sage": "0",
        "admin": "0"
      },
      {
        "id": "9917359",
        "img": "",
        "ext": "",
        "now": "2016-09-27(二)21:50:32",
        "userid": "IYTkw2u",
        "name": "无名氏",
        "email": "",
        "title": "无标题",
        "content": "¯\\_(　^ω^)_/¯",
        "sage": "0",
        "admin": "0"
      },
      {
        "id": "9917361",
        "img": "",
        "ext": "",
        "now": "2016-09-27(二)21:50:42",
        "userid": "AMmUJpK",
        "name": "无名氏",
        "email": "",
        "title": "无标题",
        "content": "¯\\_  (｀^ω^`) _/¯",
        "sage": "0",
        "admin": "0"
      }
    ]
  },
  {
    "id": "9917574",
    "img": "2016-09-27/57ea7d94521d2",
    "ext": ".jpg",
    "now": "2016-09-27(二)22:09:24",
    "userid": "tT2rL6d",
    "name": "无名氏",
    "email": "",
    "title": "无标题",
    "content": "分享图片",
    "sage": "0",
    "admin": "0",
    "replyCount": "0",
    "replys": []
  },
  {
    "id": "9916927",
    "img": "",
    "ext": "",
    "now": "2016-09-27(二)21:08:07",
    "userid": "o7L5m9L",
    "name": "无名氏",
    "email": "",
    "title": "无标题",
    "content": "是不是只有我一个觉得短发毒舌妹骚的不行啊，今天在食堂看到一个，颜说不上大美女，但也在平均以上，但那种忙碌后不耐烦的神情，干净利落的工作，还有齐耳短发…简直(つд⊂)",
    "sage": "0",
    "admin": "0",
    "remainReplys": 13,
    "replyCount": "18",
    "replys": [
      {
        "id": "9916993",
        "img": "2016-09-27/57ea70490558e",
        "ext": ".jpg",
        "now": "2016-09-27(二)21:12:41",
        "userid": "bO2bFFv",
        "name": "无名氏",
        "email": "",
        "title": "无标题",
        "content": "分享图片",
        "sage": "0",
        "admin": "0"
      },
      {
        "id": "9916995",
        "img": "2016-09-27/57ea70490558e",
        "ext": ".jpg",
        "now": "2016-09-27(二)21:12:42",
        "userid": "lRJq050",
        "name": "无名氏",
        "email": "",
        "title": "无标题",
        "content": "分享图片",
        "sage": "0",
        "admin": "0"
      },
      {
        "id": "9916997",
        "img": "",
        "ext": "",
        "now": "2016-09-27(二)21:12:47",
        "userid": "6zEe630",
        "name": "无名氏",
        "email": "",
        "title": "无标题",
        "content": "短发最棒！(＾o＾)ﾉ",
        "sage": "0",
        "admin": "0"
      },
      {
        "id": "9916999",
        "img": "",
        "ext": "",
        "now": "2016-09-27(二)21:12:49",
        "userid": "K3roLA3",
        "name": "无名氏",
        "email": "",
        "title": "无标题",
        "content": "&gt;&gt;No.9916970<br />\n我比较单纯，喜欢一个女人就想和她天天做爱，要天天摸，天天抱，天天哄(〃∀〃)",
        "sage": "0",
        "admin": "0"
      },
      {
        "id": "9917382",
        "img": "",
        "ext": "",
        "now": "2016-09-27(二)21:52:57",
        "userid": "PpLTpDs",
        "name": "无名氏",
        "email": "",
        "title": "无标题",
        "content": "&gt;&gt;No.9916927<br />\n监狱学园里有个差不多的",
        "sage": "0",
        "admin": "0"
      }
    ]
  }
]